,PID,ST_NUM,ST_NAME,OWN_OCCUPIED,NUM_BEDROOM
0,100001000,104.0,PUTNAM,Y,3
1,100002000,197.0,LEXINGTON,N,3
2,100003000,,LEXINGTON,N,n/a
3,100004000,201.0,BERKELEY,,1
4,,203.0,BERKELEY,Y,3
5,100006000,207.0,BERKELEY,Y,
6,100007000,,WASHINGTON,,2
7,100008000,213.0,TREMONT,Y,--
8,100009000,215.0,TREMONT,Y,na
